Challenge 7 Solutions
…
R Graph Gallery is a good starting point for thinking about what information is conveyed in standard graph types, and includes example R code. And anyone not familiar with Edward Tufte should check out his fantastic books and courses on data visualizaton.

(be sure to only include the category tags for the data you use!)

Hotel Bookings

Read in and clean the data

bookings_orig<- here("posts","_data","hotel_bookings.csv") %>%
  read_csv()

select(bookings_orig, starts_with("arrival"))

# A tibble: 119,390 × 4
   arrival_date_year arrival_date_month arrival_date_week_number
               <dbl> <chr>                                 <dbl>
 1              2015 July                                     27
 2              2015 July                                     27
 3              2015 July                                     27
 4              2015 July                                     27
 5              2015 July                                     27
 6              2015 July                                     27
 7              2015 July                                     27
 8              2015 July                                     27
 9              2015 July                                     27
10              2015 July                                     27
# ℹ 119,380 more rows
# ℹ 1 more variable: arrival_date_day_of_month <dbl>

bookings<-bookings_orig%>%
  mutate(date_arrival = str_c(arrival_date_day_of_month,
                              arrival_date_month,
                              arrival_date_year, sep="/"),
         date_arrival = dmy(date_arrival))%>%
  select(-starts_with("arrival"))
bookings %>%
  select(date_arrival)

# A tibble: 119,390 × 1
   date_arrival
   <date>      
 1 2015-07-01  
 2 2015-07-01  
 3 2015-07-01  
 4 2015-07-01  
 5 2015-07-01  
 6 2015-07-01  
 7 2015-07-01  
 8 2015-07-01  
 9 2015-07-01  
10 2015-07-01  
# ℹ 119,380 more rows

Visualization with multiple dimensions

Previously, we viusalized the variation in number of bookings across time, split by the type of hotel (City vs. Resort).

bookings_month_hotel_n <- bookings %>%
  mutate(month=floor_date(date_arrival,unit="month")) %>%
  group_by(month, hotel) %>%
  summarise(n=n()) %>%
  ungroup()
bookings_month_hotel_n

# A tibble: 52 × 3
   month      hotel            n
   <date>     <chr>        <int>
 1 2015-07-01 City Hotel    1398
 2 2015-07-01 Resort Hotel  1378
 3 2015-08-01 City Hotel    2480
 4 2015-08-01 Resort Hotel  1409
 5 2015-09-01 City Hotel    3529
 6 2015-09-01 Resort Hotel  1585
 7 2015-10-01 City Hotel    3386
 8 2015-10-01 Resort Hotel  1571
 9 2015-11-01 City Hotel    1235
10 2015-11-01 Resort Hotel  1105
# ℹ 42 more rows
…
bookings_month_hotel_meal_n <- bookings %>%
  mutate(month=floor_date(date_arrival,unit="month"),
         meal=recode(meal,
                     BB="Bed and Breakfast",
                     FB="Full board",
                     HB="Half board",
                     SC="Undefined"),
         across(c(hotel, meal),as.factor)) %>%
  group_by(month,hotel,meal) %>%
  summarise(n=n()) %>%
  ungroup()
bookings_month_hotel_meal_n

# A tibble: 190 × 4
   month      hotel        meal                  n
   <date>     <fct>        <fct>             <int>
 1 2015-07-01 City Hotel   Bed and Breakfast  1071
 2 2015-07-01 City Hotel   Half board          312
 3 2015-07-01 City Hotel   Undefined            15
 4 2015-07-01 Resort Hotel Bed and Breakfast   989
 5 2015-07-01 Resort Hotel Full board           69
 6 2015-07-01 Resort Hotel Half board          320
 7 2015-08-01 City Hotel   Bed and Breakfast  1881
 8 2015-08-01 City Hotel   Half board          507
 9 2015-08-01 City Hotel   Undefined            92
10 2015-08-01 Resort Hotel Bed and Breakfast   968
# ℹ 180 more rows
…
